TIPO,RASGO,DETALLE
%
IDdata,Nombre,
IDdata,Jugador/a,
IDdata,Concepto,
IDdata,Crónica,
Psique,Naturaleza,
Psique,Conducta,
Criatura,Org,
Criatura,Cargo,
Criatura,NAC/Edad,
Criatura,Género,
%
% RESERVAS
%
Reserva,Humanidad,0
Reserva,Voluntad,0
Reserva,Fe,0
%
% VIRTUDES
%
Virtud,Conciencia,0
Virtud,Autocontrol,0
Virtud,Coraje,0
%
% ATRIBUTOS
%
Físico,Fuerza,0
Físico,Destreza,0
Físico,Resistencia,0
Social,Apariencia,0
Social,Carisma,0
Social,Manipulación,0
Mental,Astucia,0
Mental,Inteligencia,0
Mental,Percepción,0
%
% HABILIDADES
%
Talento,Alerta,0
Talento,Atletismo,0
Talento,Callejeo,0
Talento,Consciencia,0
Talento,Empatía,0
Talento,Expresión,0
Talento,Intimidación,0
Talento,Liderazgo,0
Talento,Pelea,0
Talento,Subterfugio,0
Talento,»,0
Talento,»,0
%
Técnica,Armas fuego,0
Técnica,Armas c/a/c,0
Técnica,Artesanía,0
Técnica,Conducir,0
Técnica,Etiqueta,0
Técnica,Interpretación,0
Técnica,Latrocinio,0
Técnica,Sigilo,0
Técnica,Supervivencia,0
Técnica,Tr. animales,0
Técnica,»,0
Técnica,»,0
%
Conocimiento,Academia,0
Conocimiento,Ciencias,0
Conocimiento,Finanzas,0
Conocimiento,Informática,0
Conocimiento,Investigación,0
Conocimiento,Leyes,0
Conocimiento,Medicina,0
Conocimiento,Ocultismo,0
Conocimiento,Política,0
Conocimiento,Tecnología,0
Conocimiento,»,0
Conocimiento,»,0
%
% MÉRITOS
%
Mérito,»,0
Mérito,»,0
Mérito,»,0
Mérito,»,0
Mérito,»,0
%
% DEFECTOS
%
Defecto,»,0
Defecto,»,0
Defecto,»,0
Defecto,»,0
Defecto,»,0
%
% TRASFONDOS
%
Trasfondo,»,0
Trasfondo,»,0
Trasfondo,»,0
Trasfondo,»,0
Trasfondo,»,0
%
% NÚMENES
%
Numen,,
Numen,,
Numen,,
Numen,,
Numen,,
%
% RITUALES
%
Ritual,,
Ritual,,
Ritual,,
Ritual,,
Ritual,,
%
% OTROS RASGOS
%
OtrosR,»,0
OtrosR,»,0
OtrosR,»,0
OtrosR,»,0
OtrosR,»,0
%
% DEBILIDADES Y TRASTORNOS
%
Debilidad,,
Debilidad,,
Debilidad,,
Debilidad,,
Debilidad,,
Trastorno,,
Trastorno,,
Trastorno,,
Trastorno,,
Trastorno,,
%
% RELACIONES
%
Afecto,»,0
Afecto,»,0
Afecto,»,0
Afecto,»,0
Afecto,»,0
%
% ASPECTO/ROPA
%
Imagen,Cuerpo,
Imagen,Ropa,
%
% EQUIPO
%
Equipo,Normal,
Equipo,Especial,
%
% VEHÍCULOS
%
Vehículo,»,0
Vehículo,»,0
Vehículo,»,0
%
% ÉXITOS
%
Éxito,Derribos,0
%
% OBJETIVOS
%
Objetivo,General,
