EST,TYP,OCC,PRC,DIF,DAM,AGR,DIS,CAD,CRG,COM
%
ON,Presa,--,N,N,--,--,Ø,--,--,DES y FUE
ON,Mordisco,--,N,-1,F+1,✓,Ø,--,--,DES
ON,Puñetazo,--,N,N,F,--,Ø,--,--,DES
ON,Patada,--,N,+1,F+1,--,Ø,--,--,DES
ON,Garras,--,N,N,F+2,✓,Ø,--,--,DES+Prot.
ON,,\dotfill,\dotfill,\dotfill,\dotfill,\dotfill,\dotfill,\dotfill,\dotfill,
ON,,\dotfill,\dotfill,\dotfill,\dotfill,\dotfill,\dotfill,\dotfill,\dotfill,
