TIPO,RASGO,DETALLE
%
IDdata,Nombre,Deena
IDdata,Jugador,Beni
IDdata,Concepto,Vagabunda
IDdata,Crónica,Gary/Chicago
Psique,Naturaleza,Vagabunda
Psique,Conducta,Esquiva
Criatura,Clan,Nosferatu
Criatura,Sire,Sidi (desaparecido)
Criatura,Generación,13
Criatura,Abrazo,2019/19
%
% RESERVAS
%
Reserva,Humanidad,7
Reserva,Voluntad,7
Reserva,Vinculum,0
%
% DISCIPLINAS
%
Disciplina,- Animalismo,1
Disciplina,- Ofuscación,3
Disciplina,- Potencia,0
%
% VIRTUDES
%
Virtud,Conciencia,3
Virtud,Autocontrol,4
Virtud,Coraje,4
%
% ATRIBUTOS
%
Físico,Fuerza,3
Físico,Destreza,4
Físico,Resistencia,3
Social,Apariencia,X
Social,Carisma,2
Social,Manipulación,3
Mental,Astucia,3
Mental,Inteligencia,2
Mental,Percepción,3
%
% HABILIDADES
%
Talento,Alerta,2
Talento,Atletismo,0
Talento,Callejeo,2
Talento,Consciencia,1
Talento,Empatia,1
Talento,Expresion,1
Talento,Intimidación,2
Talento,Liderazgo,0
Talento,Pelea,0
Talento,Subterfugio,3
%
Técnica,Armas de fuego,D
Técnica,Artesanía,1
Técnica,Conducir,D
Técnica,Etiqueta,D
Técnica,Interpretación,2
Técnica,Latrocinio,2
Técnica,Pelea armas,D
Técnica,Sigilo,2
Técnica,Supervivencia,2
Técnica,Tr. animales,D
%
Conocimiento,Academia,X
Conocimiento,Ciencias,X
Conocimiento,Finanzas,X
Conocimiento,Informática,2
Conocimiento,Investigación,1
Conocimiento,Leyes,X
Conocimiento,Medicina,X
Conocimiento,Ocultismo,1
Conocimiento,Política,X
Conocimiento,Tecnología,1
%
% MÉRITOS
%
Mérito,Madrugadora,1
Mérito,Sueño ligero,2
Mérito,»,0
Mérito,»,0
Mérito,»,0
%
% DEFECTOS
%
Defecto,Secreto oscuro,1
Defecto,Sire infame,1
Defecto,»,0
Defecto,»,0
Defecto,»,0
%
% TRASFONDOS
%
Trasfondo,Banco de sangre,1
Trasfondo,Refugio,2
Trasfondo,»,0
Trasfondo,»,0
Trasfondo,»,0
%
% DEBILIDADES Y TRASTORNOS
%
Debilidad,Apariencia Nosferatu,
Debilidad,,
Debilidad,,
Debilidad,,
Debilidad,,
Trastorno,No soporto verme,
Trastorno,,
Trastorno,,
Trastorno,,
Trastorno,,
%
% RELACIONES
%
Vinculum,Sidi (sire),1
Vinculum,»,0
Vinculum,»,0
Afecto,»,0
Afecto,»,0
Afecto,»,0
%
% ASPECTO/ROPA
%
Imagen,Cuerpo,Constitución media
Imagen,Cuerpo,Morena; pelo liso
Imagen,Cuerpo,Melena cortada al hombro
Imagen,Cuerpo,>> cara tapada con el cabello
Imagen,Ropa,Vaqueros - informal
Imagen,Ropa,>> suelo ir oculta con Ofuscación
%
% EQUIPO
%
Equipo,Normal,
Equipo,Especial,
%
% OBJETIVOS
%
Objetivo,General,Pertenecer a una familia
Objetivo,General,Encontrar a mi sire
