EST,TYP,OCC,PRC,DIF,DAM,AGR,DIS,CAD,CRG,COM
%
ON,Agarre,--,N,N,--,--,Ø,--,--,DES y FUE
ON,Mordisco,--,+1,N,F+1,✓,Ø,--,--,DES
ON,Puñetazo,--,N,N,F,--,Ø,--,--,DES
ON,Patada,--,N,N,F+1,--,Ø,--,--,DES
ON,Garras,--,N,N,F+1,✓,Ø,--,--,DES+Prot.
ON,Pistolón,CH,N,N/+1,6,--,M/25,--,--,m.dom.
ON,Pistolón,CH,N,+1/+2,6,--,M/25,--,--,m.mala