TIPO,RASGO,DETALLE
%
IDdata,Nombre,Kornelius Puchino III
IDdata,Jugador,Albano
IDdata,Crónica,GEN-X
IDdata,Concepto, Mago de cabaré
Psique,Linaje,¡POOKA PUCHINO!
Psique,Aspecto,Infantil
Criatura,Legados,Paladín/Bufón
Criatura,Corte,Luminosa
Criatura,Casa,Liam
Criatura,Cuadrilla,La Mejor
%
% RESERVAS
%
Reserva,Glamour,6
Reserva,Banalidad,4
Reserva,Voluntad,5
Reserva,Desequilibrio,0
%
% UMBRALES
%
Umbral,Inspiración,Inspirar creatividad
Umbral,Saqueo,-- imposible --
Umbral,Antítesis,¡Rellenar formularios!
%
% ARTES
%
Arte,Adivinación,1
Arte,Embustes,1
Arte,Prestidigitación,1
Arte,Viaje,1
Arte,»,0
Arte,»,0
%
% REINOS
%
Reino,Actor,1
Reino,Hada,1
Reino,Naturaleza (af),1
Reino,Objeto,1
Reino,Escena,1
Reino,Tiempo,1
%
% ATRIBUTOS
%
Físico,Fuerza,1
Físico,Destreza,4
Físico,Resistencia,1
Social,Apariencia,3
Social,Carisma,4
Social,Manipulación,3
Mental,Astucia,2
Mental,Inteligencia,3
Mental,Percepción,3
%
% HABILIDADES
%
Talento,Alerta,2
Talento,Atletismo,2
Talento,Callejeo,0
Talento,Empatia,2
Talento,Expresion,3
Talento,Intimidación,0
Talento,Liderazgo,0
Talento,Pelea,0
Talento,Sagacidad,1
Talento,Subterfugio,3
Talento,»,0
Talento,»,0
%
Técnica,Arma blanca,D
Técnica,Arma de fuego,D
Técnica,Artesanía,1
Técnica,Conducir,D
Técnica,Etiqueta,2
Técnica,Interpretación,3
Técnica,Latrocinio,2
Técnica,Sigilo,1
Técnica,Supervivencia,D
Técnica,Tr. animales,D
Técnica,»,0
Técnica,»,0
%
Conocimiento,Academia,X
Conocimiento,Ciencias,X
Conocimiento,Enigmas,2
Conocimiento,Gremayre,2
Conocimiento,Informática,X
Conocimiento,Investigación,X
Conocimiento,Leyes,X
Conocimiento,Medicina,X
Conocimiento,Política,X
Conocimiento,Tecnología,1
Conocimiento,»,0
Conocimiento,»,0
%
% MÉRITOS
%
Mérito,Ambidiestro,+1
Mérito,Pies diestros,+2
Mérito,Equilibrio perfecto,+3
Mérito,Cola prensil,+4
Mérito,Buen oyente (-2d*),+1
%
% DEFECTOS
%
Defecto,Curioso — FdV@var,-2
Defecto,Insubord. — FdV@5,-1
Defecto,Ojos de Changeling,-1
Defecto,Ecos — pelo y manos,-3
Defecto,»,0
%
% TRASFONDOS
%
Trasfondo,Dominio,1
Trasfondo,Recuerdo,1
Trasfondo,Recursos,1
Trasfondo,Tesoro,1
Trasfondo,Título,1
%
% PRIVILEGIOS
%
Privilegio,Cambiaformas,
Privilegio,Confidente, -2d ob.info.
Privilegio,,
%
% FLAQUEZAS
%
Flaqueza,¡Mentiras!, FdV d8
Flaqueza,,
Flaqueza,,
%
% JURAMENTOS
%
Juramento,,
Juramento,,
Juramento,,
%
% OTROS RASGOS
%
OtrosR,»,0
OtrosR,»,0
OtrosR,»,0
OtrosR,»,0
OtrosR,»,0
OtrosR,»,0
%
% RELACIONES
%
Afecto,»,0
Afecto,»,0
Afecto,»,0
Afecto,»,0
%
% ASPECTO/ROPA
%
Imagen,Cuerpo,{Orejitas, pies y cola de mono capuchino, ojos miel brillante}.
Imagen,Ropa,Q: Tuxedo blanco y negro a cuadrados.
Imagen,Ropa,Guantes aterciopelados «b+n «aleat @ Q.
%
% EQUIPO
%
Equipo,Normal,Zapatos rojos de lentejuelas "Dorothy".
Equipo,Normal,Pipa churchwarden "Gandalf".
Equipo,Especial,Tesoro: Bocina (al cuello); soberanía 1 — protocolo.
%
% OBJETIVOS
%
Objetivo,General,Hacerse un nombre.
Objetivo,Particular,Formar una cuadrilla.
