EST,TYP,OCC,PRC,DIF,DAM,AGR,DIS,CAD,CRG,COM
%
ON,Puñetazo,--,N,N,F,--,Ø,--,--,DES
ON,Patada,--,N,N,F+1,--,Ø,--,--,DES
ON,Agarre,--,N,N,--,--,Ø,--,--,DES y FUE
OFF,Placaje,--,N,+1,F+1,--,Ø,--,--,FUE
OFF,Mordisco,--,+1,N,F+1,✓,Ø,--,--,DES
OFF,Garra,--,N,N,F+1,✓,Ø,--,--,DES
OFF,Navaja oxidada - esp,Ch,N,N,F,✓,Ø,--,--,DES
OFF,Cuchillo de caza,Ch,N,N,F+1,--,Ø,--,--,DES
OFF,Gladius Lucien,Ab,N,N,F+3,--,Ø,--,--,DES
OFF,Revólver,Ch,N,N,6,--,35m,2,6,DES
OFF,SW subnos. - 9mm,B,N,N,4,--,15m,2,4,DES
OFF,Beretta M9,Ch,N,N,6,--,50m,3,15+1,DES
OFF,Glock táctica,Ch,N,N,6,--,25m,3,15+1,DES
OFF,Florete,A,N,N,F+2,--,Ø,--,--,DES
OFF,Ébano,Gb,N,+1,6,--,50m,3,7+1,DES
OFF,Marfil,Gb,N,+1,6,--,50m,3,7+1,DES
ON,,\dotfill,\dotfill,\dotfill,\dotfill,\dotfill,\dotfill,\dotfill,\dotfill,
ON,,\dotfill,\dotfill,\dotfill,\dotfill,\dotfill,\dotfill,\dotfill,\dotfill,