<?xml version="1.0" encoding="UTF-8" standalone="no"?>
<!-- Created with Inkscape (http://www.inkscape.org/) -->

<svg
   xmlns:dc="http://purl.org/dc/elements/1.1/"
   xmlns:cc="http://creativecommons.org/ns#"
   xmlns:rdf="http://www.w3.org/1999/02/22-rdf-syntax-ns#"
   xmlns:svg="http://www.w3.org/2000/svg"
   xmlns="http://www.w3.org/2000/svg"
   xmlns:xlink="http://www.w3.org/1999/xlink"
   xmlns:sodipodi="http://sodipodi.sourceforge.net/DTD/sodipodi-0.dtd"
   xmlns:inkscape="http://www.inkscape.org/namespaces/inkscape"
   version="1.1"
   id="svg874"
   xml:space="preserve"
   width="793.70135"
   height="1122.52"
   viewBox="0 0 793.70135 1122.52"
   sodipodi:docname="VTM.fondo.svg"
   inkscape:version="0.92.4 (5da689c313, 2019-01-14)"><metadata
     id="metadata880"><rdf:RDF><cc:Work
         rdf:about=""><dc:format>image/svg+xml</dc:format><dc:type
           rdf:resource="http://purl.org/dc/dcmitype/StillImage" /><dc:title /></cc:Work></rdf:RDF></metadata><defs
     id="defs878"><linearGradient
       inkscape:collect="always"
       id="linearGradient2539"><stop
         style="stop-color:#800000;stop-opacity:1;"
         offset="0"
         id="stop2535" /><stop
         style="stop-color:#000000;stop-opacity:1"
         offset="1"
         id="stop2537" /></linearGradient><clipPath
       clipPathUnits="userSpaceOnUse"
       id="clipPath890"><path
         d="M 0,0 H 538.5827 V 4.25196 H 0 Z"
         id="path888"
         inkscape:connector-curvature="0" /></clipPath><clipPath
       clipPathUnits="userSpaceOnUse"
       id="clipPath1040"><path
         d="M 0,0 H 382.677 V 1.621001 H 0 Z"
         id="path1038"
         inkscape:connector-curvature="0" /></clipPath><clipPath
       clipPathUnits="userSpaceOnUse"
       id="clipPath1118"><path
         d="M 0,0 H 382.677 V 1.621001 H 0 Z"
         id="path1116"
         inkscape:connector-curvature="0" /></clipPath><clipPath
       clipPathUnits="userSpaceOnUse"
       id="clipPath1352"><path
         d="M 0,0 H 382.677 V 1.621001 H 0 Z"
         id="path1350"
         inkscape:connector-curvature="0" /></clipPath><clipPath
       clipPathUnits="userSpaceOnUse"
       id="clipPath1470"><path
         d="M 0,0 H 382.677 V 1.621001 H 0 Z"
         id="path1468"
         inkscape:connector-curvature="0" /></clipPath><clipPath
       clipPathUnits="userSpaceOnUse"
       id="clipPath1544"><path
         d="M 0,0 H 382.677 V 1.621001 H 0 Z"
         id="path1542"
         inkscape:connector-curvature="0" /></clipPath><clipPath
       clipPathUnits="userSpaceOnUse"
       id="clipPath1890"><path
         d="M 0,0 H 382.677 V 1.621001 H 0 Z"
         id="path1888"
         inkscape:connector-curvature="0" /></clipPath><clipPath
       clipPathUnits="userSpaceOnUse"
       id="clipPath1944"><path
         d="M 0,0 H 127.559 V 1.621 H 0 Z"
         id="path1942"
         inkscape:connector-curvature="0" /></clipPath><clipPath
       clipPathUnits="userSpaceOnUse"
       id="clipPath1948"><path
         d="M 0,0 H 128 V 2 H 0 Z"
         id="path1946"
         inkscape:connector-curvature="0" /></clipPath><clipPath
       clipPathUnits="userSpaceOnUse"
       id="clipPath1992"><path
         d="M 0,0 H 127.559 V 1.621 H 0 Z"
         id="path1990"
         inkscape:connector-curvature="0" /></clipPath><clipPath
       clipPathUnits="userSpaceOnUse"
       id="clipPath1996"><path
         d="M 0,0 H 128 V 2 H 0 Z"
         id="path1994"
         inkscape:connector-curvature="0" /></clipPath><clipPath
       clipPathUnits="userSpaceOnUse"
       id="clipPath2044"><path
         d="M 0,0 H 127.559 V 1.621 H 0 Z"
         id="path2042"
         inkscape:connector-curvature="0" /></clipPath><clipPath
       clipPathUnits="userSpaceOnUse"
       id="clipPath2048"><path
         d="M 0,0 H 128 V 2 H 0 Z"
         id="path2046"
         inkscape:connector-curvature="0" /></clipPath><clipPath
       clipPathUnits="userSpaceOnUse"
       id="clipPath2092"><path
         d="M 0,0 H 127.559 V 1.621 H 0 Z"
         id="path2090"
         inkscape:connector-curvature="0" /></clipPath><clipPath
       clipPathUnits="userSpaceOnUse"
       id="clipPath2096"><path
         d="M 0,0 H 128 V 2 H 0 Z"
         id="path2094"
         inkscape:connector-curvature="0" /></clipPath><clipPath
       clipPathUnits="userSpaceOnUse"
       id="clipPath2148"><path
         d="M 0,0 H 127.559 V 1.621 H 0 Z"
         id="path2146"
         inkscape:connector-curvature="0" /></clipPath><clipPath
       clipPathUnits="userSpaceOnUse"
       id="clipPath2152"><path
         d="M 0,0 H 128 V 2 H 0 Z"
         id="path2150"
         inkscape:connector-curvature="0" /></clipPath><clipPath
       clipPathUnits="userSpaceOnUse"
       id="clipPath2196"><path
         d="M 0,0 H 127.559 V 1.621 H 0 Z"
         id="path2194"
         inkscape:connector-curvature="0" /></clipPath><clipPath
       clipPathUnits="userSpaceOnUse"
       id="clipPath2200"><path
         d="M 0,0 H 128 V 2 H 0 Z"
         id="path2198"
         inkscape:connector-curvature="0" /></clipPath><clipPath
       clipPathUnits="userSpaceOnUse"
       id="clipPath2324"><path
         d="M 0,0 H 127.559 V 1.621 H 0 Z"
         id="path2322"
         inkscape:connector-curvature="0" /></clipPath><clipPath
       clipPathUnits="userSpaceOnUse"
       id="clipPath2328"><path
         d="M 0,0 H 128 V 2 H 0 Z"
         id="path2326"
         inkscape:connector-curvature="0" /></clipPath><clipPath
       clipPathUnits="userSpaceOnUse"
       id="clipPath2380"><path
         d="M 0,0 H 127.559 V 1.621 H 0 Z"
         id="path2378"
         inkscape:connector-curvature="0" /></clipPath><clipPath
       clipPathUnits="userSpaceOnUse"
       id="clipPath2384"><path
         d="M 0,0 H 128 V 2 H 0 Z"
         id="path2382"
         inkscape:connector-curvature="0" /></clipPath><clipPath
       clipPathUnits="userSpaceOnUse"
       id="clipPath2436"><path
         d="M 0,0 H 538.5827 V 4.25196 H 0 Z"
         id="path2434"
         inkscape:connector-curvature="0" /></clipPath><linearGradient
       inkscape:collect="always"
       xlink:href="#linearGradient2539"
       id="linearGradient2541"
       x1="411.21509"
       y1="199.91307"
       x2="411.21509"
       y2="79.712379"
       gradientUnits="userSpaceOnUse" /></defs><sodipodi:namedview
     pagecolor="#ffffff"
     bordercolor="#666666"
     borderopacity="1"
     objecttolerance="10"
     gridtolerance="10"
     guidetolerance="10"
     inkscape:pageopacity="0"
     inkscape:pageshadow="2"
     inkscape:window-width="1278"
     inkscape:window-height="781"
     id="namedview876"
     showgrid="false"
     inkscape:zoom="0.51580372"
     inkscape:cx="396.85068"
     inkscape:cy="561.26001"
     inkscape:window-x="0"
     inkscape:window-y="0"
     inkscape:window-maximized="0"
     inkscape:current-layer="g1691"
     showguides="false"
     inkscape:guide-bbox="true"><sodipodi:guide
       position="16.638426,1095.1412"
       orientation="1,0"
       id="guide3069"
       inkscape:locked="false" /><sodipodi:guide
       position="65.596232,1084.6079"
       orientation="0,1"
       id="guide3071"
       inkscape:locked="false" /><sodipodi:guide
       position="65.230939,1082.9379"
       orientation="0,1"
       id="guide3073"
       inkscape:locked="false" /><sodipodi:guide
       position="755.90531,1083.7959"
       orientation="0,1"
       id="guide3077"
       inkscape:locked="false" /><sodipodi:guide
       position="755.90531,1083.7959"
       orientation="1,0"
       id="guide3079"
       inkscape:locked="false" /><sodipodi:guide
       position="741.10798,1086.6293"
       orientation="0,1"
       id="guide3081"
       inkscape:locked="false" /><sodipodi:guide
       position="741.23035,1080.9573"
       orientation="0,1"
       id="guide3085"
       inkscape:locked="false" /><sodipodi:guide
       position="737.3257,1082.9379"
       orientation="1,0"
       id="guide3087"
       inkscape:locked="false" /><sodipodi:guide
       position="741.10798,1086.6293"
       orientation="1,0"
       id="guide3089"
       inkscape:locked="false" /></sodipodi:namedview><g
     inkscape:label="marco"
     id="g1691"
     inkscape:groupmode="layer"><path
       style="fill:url(#linearGradient2541);stroke:none;stroke-width:1px;stroke-linecap:butt;stroke-linejoin:miter;stroke-opacity:1;fill-opacity:1"
       d="M 35.041016 14.992188 C 35.041016 17.548837 34.183725 29.069319 32.203125 29.667969 C 34.18352 29.790449 34.18352 30.671056 34.183594 33.572266 L 34.183594 37.912109 L 32.710938 37.912109 C 29.982498 37.912105 28.929118 37.559841 28.929688 35.890625 C 27.926417 38.089065 17.177889 38.724609 14.130859 38.724609 C 16.687509 38.724609 28.207991 39.5819 28.806641 41.5625 C 28.929121 39.582105 29.809727 39.582105 32.710938 39.582031 L 34.183594 39.582031 C 34.183558 47.797391 34.183583 164.17256 34.183594 286.33008 C 34.183603 396.61462 34.183594 509.0957 34.183594 509.0957 C 34.183583 633.58288 34.183555 1081.0597 34.183594 1088.332 L 32.710938 1088.332 C 29.982498 1088.332 28.929118 1087.9797 28.929688 1086.3105 C 27.926417 1088.5089 17.177889 1089.1445 14.130859 1089.1445 C 16.687509 1089.1445 28.207991 1090.0018 28.806641 1091.9824 C 28.929121 1090.002 29.809728 1090.0021 32.710938 1090.002 C 32.72649 1090.002 34.159763 1090.002 34.183594 1090.002 C 34.183594 1090.0128 34.183594 1091.3298 34.183594 1091.3359 C 34.18352 1094.2371 34.18352 1095.1177 32.203125 1095.2402 C 34.183725 1095.8388 35.041016 1107.3593 35.041016 1109.916 C 35.041016 1106.8689 35.67656 1096.1205 37.875 1095.1172 C 36.205784 1095.1178 35.85352 1094.0643 35.853516 1091.3359 C 35.853516 1091.3319 35.853516 1090.0107 35.853516 1090.002 C 41.474015 1090.002 161.89179 1090.002 285.46875 1090.002 L 508.23438 1090.002 C 631.79007 1090.002 752.14657 1090.002 757.80664 1090.002 C 757.80664 1090.0128 757.80664 1091.3298 757.80664 1091.3359 C 757.80657 1094.2371 757.80657 1095.1177 755.82617 1095.2402 C 757.80677 1095.8388 758.66406 1107.3593 758.66406 1109.916 C 758.66406 1106.8689 759.29961 1096.1205 761.49805 1095.1172 C 759.82883 1095.1178 759.47656 1094.0643 759.47656 1091.3359 L 759.47656 1090.002 C 759.50134 1090.002 760.97618 1090.002 760.99219 1090.002 C 763.8934 1090.0021 764.774 1090.002 764.89648 1091.9824 C 765.49513 1090.0018 777.01562 1089.1445 779.57227 1089.1445 C 776.52524 1089.1445 765.77671 1088.5089 764.77344 1086.3105 C 764.77401 1087.9797 763.72063 1088.332 760.99219 1088.332 L 759.47656 1088.332 L 759.47656 509.0957 L 759.47656 286.33008 L 759.47656 39.582031 L 760.99219 39.582031 C 763.8934 39.582105 764.774 39.582105 764.89648 41.5625 C 765.49513 39.5819 777.01562 38.724609 779.57227 38.724609 C 776.52524 38.724609 765.77671 38.089065 764.77344 35.890625 C 764.77401 37.559841 763.72063 37.912105 760.99219 37.912109 L 759.47656 37.912109 L 759.47656 33.572266 C 759.47656 30.843826 759.82883 29.790446 761.49805 29.791016 C 759.29961 28.787746 758.66406 18.039217 758.66406 14.992188 C 758.66406 17.548837 757.80677 29.069319 755.82617 29.667969 C 757.80657 29.790449 757.80657 30.671056 757.80664 33.572266 L 757.80664 37.912109 C 753.00991 37.912107 632.04136 37.912109 508.23438 37.912109 L 285.46875 37.912109 C 161.64044 37.912109 40.610014 37.912107 35.853516 37.912109 L 35.853516 33.572266 C 35.85352 30.843826 36.205784 29.790446 37.875 29.791016 C 35.67656 28.787746 35.041016 18.039217 35.041016 14.992188 z M 35.853516 39.582031 C 41.474014 39.582069 161.89179 39.582042 285.46875 39.582031 C 395.75328 39.582022 508.23436 39.582031 508.23438 39.582031 C 631.79007 39.582042 752.14657 39.582069 757.80664 39.582031 C 757.8066 47.797388 757.80663 164.17256 757.80664 286.33008 C 757.80665 396.61462 757.80664 509.0957 757.80664 509.0957 C 757.80663 633.58288 757.8066 1081.0597 757.80664 1088.332 L 508.23438 1088.332 L 285.46875 1088.332 L 35.853516 1088.332 C 35.853518 1081.9526 35.853516 633.83606 35.853516 509.0957 L 35.853516 286.33008 L 35.853516 39.582031 z "
       id="path1681" /></g></svg>