TIPO,RASGO,DETALLE
%
IDdata,Nombre,Dulce Oni-Boar
IDdata,Jugador,PNJ
IDdata,Crónica,Chicago/Gary
IDdata,Concepto,Plebe
Psique,Linaje,Sátiro
Psique,Aspecto,Rebelde
Criatura,Corte,Luminosa
Criatura,Legado,Escudero
Criatura,Casa,independiente
Criatura,Cuadrilla,nómada
%
% RESERVAS
%
Reserva,Glamour,7
Reserva,Banalidad,2
Reserva,Voluntad,5
Reserva,Desequilibrio,0
%
% UMBRALES
%
Umbral,Inspiración,Ayudar a los necesitados
Umbral,Saqueo,
Umbral,Antítesis,Casas de apuestas
%
% ARTES
%
Arte,Adivinación,1
Arte,Oniromancia,2
Arte,Viaje,2
Arte,»,0
Arte,»,0
Arte,»,0
%
% REINOS
%
Reino,Actor,2
Reino,Escena,2
Reino,Hada,1
Reino,Naturaleza,0
Reino,Objeto,0
Reino,Tiempo,0
%
% ATRIBUTOS
%
Físico,Fuerza,3
Físico,Destreza,3
Físico,Resistencia,4
Social,Apariencia,2
Social,Carisma,2
Social,Manipulación,2
Mental,Astucia,2
Mental,Inteligencia,3
Mental,Percepción,2
%
% HABILIDADES
%
Talento,Alerta,1
Talento,Atletismo,0
Talento,Callejeo,2
Talento,Empatía,2
Talento,Expresión,3
Talento,Intimidación,0
Talento,Liderazgo,1
Talento,Pelea,0
Talento,Sagacidad,1
Talento,Subterfugio,0
Talento,»,0
Talento,»,0
%
Técnica,Arma blanca,D
Técnica,Arma de fuego,D
Técnica,Artesanía,1
Técnica,Conducir,1
Técnica,Etiqueta,3
Técnica,Interpretación,3
Técnica,Latrocinio,D
Técnica,Sigilo,1
Técnica,Supervivencia,D
Técnica,Tr. animales,D
Técnica,»,0
Técnica,»,0
%
Conocimiento,Academia,1
Conocimiento,Ciencias,X
Conocimiento,Enigmas,2
Conocimiento,Gremayre,2
Conocimiento,Informática,X
Conocimiento,Investigación,X
Conocimiento,Leyes,X
Conocimiento,Medicina,X
Conocimiento,Política,X
Conocimiento,Tecnología,X
Conocimiento,»,0
Conocimiento,»,0
%
% MÉRITOS
%
Mérito,,
Mérito,,
Mérito,,
Mérito,,
Mérito,,
%
% DEFECTOS
%
Defecto,,
Defecto,,
Defecto,,
Defecto,,
Defecto,,
%
% TRASFONDOS
%
Trasfondo,»,0
Trasfondo,»,0
Trasfondo,»,0
Trasfondo,»,0
Trasfondo,»,0
%
% PRIVILEGIOS
%
Privilegio,Cambiaformas,
Privilegio,Confianza,
Privilegio,,
%
% FLAQUEZAS
%
Flaqueza,Mentiras,
Flaqueza,,
Flaqueza,,
%
% JURAMENTOS
%
Juramento,,
Juramento,,
Juramento,,
%
% OTROS RASGOS
%
OtrosR,»,0
OtrosR,»,0
OtrosR,»,0
OtrosR,»,0
OtrosR,»,0
OtrosR,»,0
%
% RELACIONES
%
Afecto,»,0
Afecto,»,0
Afecto,»,0
Afecto,»,0
%
% ASPECTO/ROPA
%
Imagen,Cuerpo,{Mezcla entre oni, jabalí y sátiro.}
Imagen,Ropa,
%
% EQUIPO
%
Equipo,Normal,
Equipo,Especial,
%
% OBJETIVOS
%
Objetivo,General,
Objetivo,Particular,
