EST,TYP,OCC,PRC,DIF,DAM,AGR,DIS,CAD,CRG,COM
%
ON,Puñetazo,--,N,N,F,--,Ø,--,--,DES
ON,Patada,--,N,+1,F+1,--,Ø,--,--,DES
OFF,Barrido,--,N,+1,F,--,Ø,--,--,DES
ON,Agarre,--,N,N,--,--,Ø,--,--,FUE
ON,Forcejeo,--,N,N,F,--,Ø,--,--,FUE
ON,Placaje,--,N,+1,F+1,--,Ø,--,--,FUE
OFF,SW .38 Bodyguard,B,N,N,4,--,12m,3,6,DES
OFF,SW mp9c - 9mm,B,N,N,4,--,20m,4,15+1,DES
OFF,Beretta M9,Ch,N,N,6,--,50m,3,15+1,DES
OFF,Colt M1911,Ch,N,+1,6,--,50m,3,7+1,DES
OFF,S\&W Gov.(.410),Ch,N,-1,8,--,10m,2,6,DES
OFF,Revólver,Ch,N,N,6,--,35m,2,6,DES
OFF,Remington 870,A,N,N,8,--,20m,1,5+1,DES
OFF,Glock táctica,Ch,N,N,6,--,25m,3,15+1,DES
OFF,Escopeta casera,Gb,-2,N,8,--,20m,1,6,DES
OFF,Subfúsil s2000,--,N,N,4,--,150m,3,12+1,DES
OFF,Navaja,B,N,N,F,--,Ø,--,--,DES
OFF,Táser,B,+1,N,Esp.,--,Ø,1,3,DES
OFF,Punzón,B,-1,N,,--,Ø,--,--,DES
OFF,Hacha táctica,Ch,N,+2,,--,Ø,--,--,DES
OFF,,\dotfill,\dotfill,\dotfill,\dotfill,\dotfill,\dotfill,\dotfill,\dotfill,
OFF,,\dotfill,\dotfill,\dotfill,\dotfill,\dotfill,\dotfill,\dotfill,\dotfill,