TIPO,RASGO,DETALLE
%
IDdata,Nombre,Servitor Deae
IDdata,Jugador,PNJ
IDdata,Crónica,Chicago/Gary
IDdata,Concepto,Esclavo Helena
Psique,Naturaleza,Soldado
Psique,Conducta,Soldado
Criatura,Vida,Olvidada
Criatura,Muerte,Sacrificio
Criatura,Arrepent.,Incumplir deberes
Criatura,Legión,Legión Siniestra
%
% RESERVAS
%
Reserva,Corpus,10
Reserva,Voluntad,8
Reserva,Pathos,0
%
% ESFERAS
%
Arcano1,Castigo,0
Arcano1,Habitar,0
Arcano1,Moliate,0
Arcano1,Usura,2				% puede robar quintaessencia & glamour
Arcano2,Argos,2				% atajos y planear (alas)
Arcano2,Canto,0				% hacer salir la voz de un objeto o persona
Arcano2,Fantasmagoría,0
Arcano2,Fatalismo,4			% preveer ataques
Arcano3,Encarnar,5			% breve momento de materialización completa
Arcano3,Marioneta,4			% posesiones clásicas
Arcano3,Pandemonio,3		% enlazar dos puertas
Arcano3,Rabia,2				% estadillos de movimiento
Arcano3,Red vital,0			% sentir el estado de los grilletes
Arcano4,Flux,0				% degradar un objeto
Arcano4,Intimar,0
Arcano4,Mnemosynis,0		% proyecta recuerdos propios en el destinatario
%
% GRILLETES
%
Grillete,Succubus Club,5
Grillete,,0
Grillete,,0
Grillete,,0
Grillete,,0
Grillete,,0
Grillete,,0
Grillete,,0
%
% PASIONES
%
Pasión,Defender el sitio (amor),5
Pasión,Paralizar enemigo (terror),5
Pasión,Ahuyentar enemigo (miedo),5
Pasión,,0
Pasión,,0
Pasión,,0
Pasión,,0
Pasión,,0
%
%
% ATRIBUTOS : 13 10 8
%
Físico,Fuerza,4
Físico,Destreza,5
Físico,Resistencia,4
Social,Apariencia,4
Social,Carisma,2
Social,Manipulación,4
Mental,Astucia,3
Mental,Inteligencia,2
Mental,Percepción,3
%
% HABILIDADES : 20 14 8
%
Talento,Alerta,3
Talento,Atletismo,4
Talento,Callejeo,0
Talento,Consciencia,2
Talento,Empatía,0
Talento,Expresión,0
Talento,Liderazgo,0
Talento,Pelea,5
Talento,Persuasión,3
Talento,Subterfugio,0
Talento,»,0
Talento,»,0
%
Técnica,Armas fuego,D
Técnica,Artes c/a/c,5
Técnica,Artesanía,D
Técnica,Conducir,D
Técnica,Etiqueta,2
Técnica,Interpretación,3
Técnica,Latrocinio,D
Técnica,Liderazgo,D
Técnica,Meditación,D
Técnica,Sigilo,4
Técnica,»,0
Técnica,»,0
%
Conocimiento,Academia,2
Conocimiento,Burocracia,X
Conocimiento,Ciencia,X
Conocimiento,Computación,X
Conocimiento,Enigmas,3
Conocimiento,Investigación,X
Conocimiento,Medicina,X
Conocimiento,Ocultismo,3
Conocimiento,Política,X
Conocimiento,Tecnología,X
Conocimiento,»,0
Conocimiento,»,0
%
% MÉRITOS
%
Mérito,»,0
Mérito,»,0
Mérito,»,0
Mérito,»,0
Mérito,»,0
%
% DEFECTOS
%
Defecto,Protegido/a,-5
Defecto,,0
Defecto,,0
Defecto,,0
Defecto,,0
%
% TRASFONDOS
%
Trasfondo,Artefacto,4
Trasfondo,Eidolon,3
Trasfondo,Reliquia,5
Trasfondo,,0
Trasfondo,,0
%
% MARCAS
%
Marca,Ojos negros,Argos
Marca,Pelo/ropa flota sumergida,Argos
Marca,Aspecto estatua clásica,Encarnar
Marca,Aspecto ideal clásico,Marioneta
Marca,Tatuajes vivos humo,Fatalismo
Marca,Musculado clásico,Rabia
Marca,µ-lentes gravit. perfil,Pandemonium
Marca,Letras y símbolos vivos,Usura
%
% OTROS RASGOS
%
Otro,,0
Otro,,0
Otro,,0
Otro,,0
Otro,,0
%
%
% ASPECTO/ROPA
%
Imagen,Cuerpo,
Imagen,Ropa,
%
% EQUIPO
%
Equipo,Normal,
Equipo,Especial,Espada de Beowulf
%
% OBJETIVOS
%
Objetivo,General,Extra omnes a solis ortu usque ad occasum.
