TIPO,RASGO,DETALLE
%
IDdata,Nombre,Grace
IDdata,Jugador,PNJ
IDdata,Concepto,Erudita
IDdata,Crónica,Chicago/Gary
Psique,Naturaleza,Erudita
Psique,Conducta,Discreta
Criatura,Tribu,Glass Walker
Criatura,Auspicio,Ahroun
Criatura,Raza,Homínida
Criatura,Fecha nac.,1980
Deformidad,Metis,
%
% RESERVAS
%
Reserva,Voluntad,7
Reserva,Gnosis,6
Reserva,Rabia,6
%
% DONES
%
DonL,Persuasión,1
DonL,Garras como cuchillas,1
DonL,Inspiración,1
DonL,Roce del derribo,1
DonL,Control máq. simple,1
DonR,Habla del Mundo,1
DonR,Marca del lobo,2
DonR,Atascar tecnología,2
DonR,Miedo verdadero,2
DonR,Control máq. compleja,3
%
% RITOS
%
Rito,Talismán Dedicado,1
Rito,Vinculación,1
Rito,Invocación,2
Rito,Creación de Fetiche,3
Rito,Desc. al Inframundo,3
%
% RENOMBRE
%
Renombre,Rango,3
Renombre,Gloria,6
Renombre,Honor,3
Renombre,Sabiduría,3
%
% ATRIBUTOS
%
Físico,Fuerza,2
Físico,Destreza,3
Físico,Resistencia,3
Social,Apariencia,3
Social,Carisma,2
Social,Manipulación,2
Mental,Astucia,3
Mental,Inteligencia,3
Mental,Percepción,4
%
% HABILIDADES
%
Talento,Alerta,2
Talento,Atletismo,1
Talento,Callejeo,2
Talento,Consciencia,2
Talento,Empatia,2
Talento,Expresion,0
Talento,Imp. primario,1
Talento,Intimidación,0
Talento,Liderazgo,1
Talento,Pelea,2
Talento,Subterfugio,1
Talento,»,0
%
Técnica,Arma blanca,D
Técnica,Arma fuego,2
Técnica,Artesanía,3
Técnica,Conducir,1
Técnica,Etiqueta,D
Técnica,Interpretación,D
Técnica,Latrocinio,D
Técnica,Sigilo,3
Técnica,Supervivencia,D
Técnica,Tr. Animales,D
Técnica,»,D
Técnica,»,D
%
Conocimiento,Academia,X
Conocimiento,Ciencias,X
Conocimiento,Con. zona,3
Conocimiento,Enigmas,3
Conocimiento,Informática,2
Conocimiento,Investigación,X
Conocimiento,Leyes,2
Conocimiento,Medicina,X
Conocimiento,Ocultismo,4
Conocimiento,Rituales,3
Conocimiento,Tecnología,1
Conocimiento,» Cn. Vampiros,3
%
% MÉRITOS
%
Mérito,Metamorfa,+7
Mérito,»,0
Mérito,»,0
Mérito,»,0
Mérito,»,0
%
% DEFECTOS
%
Defecto,»,0
Defecto,»,0
Defecto,»,0
Defecto,»,0
Defecto,»,0
%
% TRASFONDOS
%
Trasfondo,,0
Trasfondo,,0
Trasfondo,,0
Trasfondo,,0
Trasfondo,,0
%
% RELACIONES
%
Afecto,»,0
Afecto,»,0
Afecto,»,0
%
% ASPECTO/ROPA
%
Imagen,Cuerpo,
Imagen,Ropa,
%
% EQUIPO
%
Equipo,Normal,
Equipo,Fetiche,
%
% OBJETIVOS
%
Objetivo,General,
Objetivo,Particular,